25.806909561157227
5.201788425445557
4.496131420135498
33.092098236083984
2.9365909099578857
5.1862101554870605
2.9096765518188477
3.4697020053863525
2.9499435424804688
3.0169029235839844
3.6018614768981934
1.2924851179122925
1.460645318031311
3.2280969619750977
3.8147318363189697
1.4428496360778809
2.6764397621154785
1.5390897989273071
1.4986006021499634
3.1646409034729004
1.5778186321258545
0.8537360429763794
2.1449756622314453
1.9677560329437256
3.556408643722534
1.8173190355300903
2.3399946689605713
1.8716524839401245
2.400219678878784
1.3880339860916138
2.1626181602478027
1.5154378414154053
1.9877854585647583
2.643756866455078
2.2084052562713623
3.4770336151123047
1.9821608066558838
3.1378748416900635
2.990600109100342
3.359327554702759
2.442721128463745
2.9592292308807373
2.467987060546875
2.973374128341675
3.111363410949707
4.257432460784912
2.5349197387695312
3.1639151573181152
2.8514153957366943
2.7934486865997314
2.0705745220184326
1.966896653175354
1.7454935312271118
2.1380813121795654
10.87981128692627
23.157896041870117
17.459951400756836
16.446401596069336
1.8448638916015625
2.574371337890625
2.188002586364746
20.28656768798828
1.981679916381836
8.775630950927734
10.14200496673584
8.353862762451172
4.989241600036621
8.313709259033203
2.7552196979522705
3.8667209148406982
9.21313762664795
1.9574164152145386
5.150297164916992
1.693403959274292
2.347810983657837
5.125511646270752
2.2384212017059326
2.1214582920074463
4.872121334075928
2.1494152545928955
6.079491138458252
4.473230361938477
5.238470554351807
1.64085054397583
4.078275680541992
1.70513916015625
1.6163922548294067
3.4751381874084473
2.5471794605255127
2.6243937015533447
3.7459516525268555
2.577484607696533
4.596857070922852
4.7409987449646
2.0795810222625732
4.1519927978515625
2.720355749130249
1.3557254076004028
1.9172744750976562
4.1614089012146
2.05975604057312
1.6766217947006226
3.6863491535186768
2.4331676959991455
4.220573425292969
4.755143165588379
1.8809837102890015
5.007177829742432
3.0626864433288574
5.0068206787109375
2.7038679122924805
4.897650241851807
4.982184886932373
3.095386505126953
3.252192258834839
3.6888747215270996
4.132641315460205
2.5145509243011475
2.8703930377960205
2.9818902015686035
2.8743159770965576
2.8173186779022217
3.272772789001465
3.18735933303833
0.9684781432151794
2.148895263671875
2.306886672973633
1.2858047485351562
1.2706397771835327
2.586681604385376
4.573769569396973
2.4745192527770996
4.6459832191467285
2.286883592605591
1.5986957550048828
1.8412977457046509
3.7796900272369385
1.9032152891159058
1.4303282499313354
1.2941924333572388
2.6283607482910156
1.6903351545333862
3.347045421600342
2.3153669834136963
2.2813189029693604
1.0576115846633911
1.7772314548492432
2.6017818450927734
1.7107747793197632
1.796695351600647
2.105621099472046
2.319106340408325
1.9466018676757812
1.2350924015045166
2.1055352687835693
1.6340327262878418
1.7486464977264404
1.906354546546936
1.8455262184143066
1.9493862390518188
2.849548101425171
2.413102626800537
1.5769582986831665
2.110442638397217
2.50036358833313
1.2749361991882324
1.5002273321151733
1.2978224754333496
2.229799747467041
5.832417964935303
1.6384731531143188
1.3961069583892822
7.3760175704956055
0.8953822255134583
3.9534168243408203
1.24871027469635
1.3960795402526855
3.5193629264831543
2.2787740230560303
3.0538992881774902
1.2749310731887817
2.061844825744629
1.5813578367233276
1.8473634719848633
1.6021815538406372
1.7023308277130127
2.744373321533203
2.0654091835021973
1.9042153358459473
1.5767183303833008
1.4065934419631958
1.0801469087600708
2.1265382766723633
2.023772716522217
1.3834507465362549
2.340148448944092
2.3336780071258545
8.394393920898438
6.567025661468506
2.4063594341278076
1.679779052734375
1.968614935874939
7.762197017669678
0.9486790895462036
7.559929847717285
1.5668025016784668
6.580608367919922
2.171079635620117
1.4436097145080566
1.904483437538147
6.6122517585754395
7.24957799911499
2.083157539367676
2.3146040439605713
7.392642974853516
1.991094708442688
7.009884834289551
2.3353607654571533
6.303635120391846
3.0770697593688965
7.044683456420898
2.4067542552948
1.5148440599441528
2.1733129024505615
1.6313976049423218
1.9748573303222656
6.2510809898376465
1.796539306640625
2.429300308227539
2.4003546237945557
5.96891975402832
1.4601975679397583
5.466928005218506
1.7314708232879639
1.509610891342163
5.62129545211792
1.633872389793396
5.5374603271484375
1.3894625902175903
3.1028144359588623
7.352337837219238
2.8281056880950928
8.04403018951416
3.6132922172546387
6.7772626876831055
3.307356357574463
2.4390134811401367
2.7674479484558105
7.231595516204834
3.074664831161499
5.667457580566406
6.8311028480529785
2.138740301132202
2.493321180343628
2.4217240810394287
8.968186378479004
3.5318689346313477
1.6893858909606934
6.205787658691406
3.1161437034606934
1.4599761962890625
2.0807271003723145
4.474099636077881
1.2722400426864624
5.469760417938232
1.3266109228134155
2.0127360820770264
6.254644870758057
2.5068299770355225
4.450664043426514
1.66901695728302
2.7139077186584473
4.502796173095703
1.8530445098876953
5.2475481033325195
4.001716613769531
2.651569128036499
2.967209815979004
2.3135223388671875
5.294723987579346
3.1498641967773438
2.531780481338501
4.647502899169922
2.684784412384033
3.9532692432403564
3.153031349182129
5.0576558113098145
2.9797942638397217
5.601447582244873
2.5080373287200928
5.151949882507324
2.405487298965454
4.044927597045898
2.244579315185547
2.8127243518829346
2.382575750350952
4.317541599273682
1.9017133712768555
3.235006809234619
5.862516403198242
2.658651351928711
1.5634205341339111
5.317288875579834
2.34778094291687
6.147874355316162
3.127605676651001
1.8048044443130493
5.954959392547607
3.4636666774749756
3.264500856399536
5.449793338775635
1.3438054323196411
1.630580186843872
2.26007080078125
6.465805530548096
2.654893159866333
5.378851413726807
1.35671067237854
1.3796848058700562
1.8822489976882935
1.4355711936950684
5.0151848793029785
3.2377514839172363
5.370901584625244
1.9424463510513306
5.54902458190918
1.567344069480896
1.5719754695892334
1.4567992687225342
5.186657428741455
1.8660509586334229
2.463181734085083
5.4997100830078125
2.9022858142852783
3.6785218715667725
5.00286340713501
2.0371577739715576
5.103200435638428
6.442057132720947
1.4077398777008057
2.530268907546997
5.763555526733398
2.663142442703247
3.048503875732422
3.14782452583313
4.1429877281188965
2.559563159942627
2.733137369155884
7.106966018676758
6.087006092071533
3.693110227584839
2.453017234802246
6.086396217346191
3.3164117336273193
5.6347198486328125
2.1904516220092773
2.921171188354492
4.890743255615234
2.0191104412078857
1.6969947814941406
4.434737682342529
2.0557429790496826
5.112727642059326
2.1861202716827393
2.4113030433654785
4.146678924560547
4.904982566833496
2.73250675201416
2.2095108032226562
4.3689985275268555
3.699751615524292
3.4324913024902344
3.820443868637085
4.077091217041016
3.9784669876098633
2.6175923347473145
2.983872413635254
4.43070650100708
2.0789880752563477
4.462155342102051
3.4559998512268066
3.3173673152923584
5.624054908752441
3.4677298069000244
4.4732818603515625
3.4764654636383057
2.499814748764038
4.16192102432251
2.080944299697876
4.547450542449951
2.3392293453216553
2.396282434463501
4.13014030456543
1.9998347759246826
3.556201696395874
2.205435276031494
3.4608805179595947
1.4978259801864624
2.435889482498169
3.6334848403930664
3.081019639968872
5.425546646118164
2.229179620742798
2.5487029552459717
2.7160773277282715
4.689103603363037
1.5047872066497803
2.4324779510498047
1.7477163076400757
4.418056011199951
2.6192128658294678
2.8092336654663086
4.907724857330322
5.238397598266602
2.054824113845825
3.8920764923095703
2.29451322555542
3.957347869873047
3.0762979984283447
4.090446949005127
2.1895620822906494
2.418140172958374
4.177436828613281
1.9092175960540771
2.661919593811035
4.657783508300781
1.6865288019180298
4.936662197113037
2.6666486263275146
1.6255486011505127
4.767609119415283
1.55950927734375
4.022268772125244
2.0039072036743164
3.006155014038086
5.8230390548706055
3.2590057849884033
4.0022873878479
5.330157279968262
3.131568670272827
2.0268619060516357
4.295673847198486
3.0695831775665283
2.341465473175049
2.503873109817505
1.9656518697738647
2.3959312438964844
4.634770393371582
1.3138424158096313
2.4482247829437256
3.0579562187194824
2.0830495357513428
3.7541844844818115
1.5565663576126099
1.8707395792007446
2.9579241275787354
3.586991548538208
3.073441505432129
2.49151611328125
2.4482247829437256
2.544947385787964
2.246661901473999
2.5753285884857178
3.1841282844543457
2.7705459594726562
1.9921016693115234
4.080047130584717
2.2333552837371826
2.8703818321228027
3.2255074977874756
2.572265148162842
1.4964604377746582
2.3381896018981934
1.8904367685317993
2.0107030868530273
2.539663791656494
2.8724215030670166
2.181518077850342
2.980271100997925
2.081324815750122
2.503403902053833
7.72812557220459
2.852792739868164
2.066844940185547
2.847316026687622
4.5700602531433105
3.079833984375
2.3225815296173096
5.74748420715332
2.4173171520233154
6.49163293838501
2.7223520278930664
6.790069103240967
3.1718459129333496
2.2081031799316406
2.9444310665130615
4.517996788024902
2.272761583328247
2.361133337020874
6.48942232131958
2.251926898956299
4.019602298736572
7.246424674987793
2.902167320251465
2.4328832626342773
6.082230567932129
2.8306174278259277
2.783094882965088
2.67448091506958
2.575977087020874
1.000623345375061
2.7424893379211426
2.770346164703369
3.1880483627319336
3.7976608276367188
3.1176087856292725
1.5735745429992676
2.493562698364258
4.414636611938477
2.105574369430542
3.079791784286499
1.1134952306747437
1.5212408304214478
1.4582931995391846
2.122122287750244
1.9135761260986328
1.2485467195510864
3.699648857116699
2.109130382537842
3.121246337890625
1.7214370965957642
3.12446928024292
2.3187263011932373
2.982745885848999
1.7780075073242188
6.692963600158691
1.973910927772522
2.4411187171936035
5.040167808532715
1.48529052734375
5.099642753601074
1.0804263353347778
1.946931004524231
4.302558422088623
1.9981237649917603
4.537866592407227
2.6460111141204834
2.683901786804199
1.7837833166122437
1.6389541625976562
1.131425380706787
2.4594762325286865
1.9503065347671509
2.079841375350952
1.9928699731826782
1.9531245231628418
2.4479687213897705
2.8488903045654297
4.192027568817139
3.129981279373169
1.6468709707260132
2.173569917678833
3.936178207397461
4.024624347686768
1.9891668558120728
4.055027008056641
2.468567371368408
2.0723304748535156
2.401742458343506
2.0081264972686768
2.35233736038208
4.537776470184326
2.265552043914795
3.3290982246398926
4.2306060791015625
4.182231426239014
2.962524890899658
3.3777899742126465
4.289494037628174
4.1647443771362305
1.8778820037841797
3.798893928527832
2.417196035385132
2.4208130836486816
3.6446948051452637
1.6963688135147095
4.543229579925537
1.696376085281372
1.5887837409973145
5.030192852020264
3.734527349472046
4.6561279296875
3.3786041736602783
2.7648544311523438
2.0167782306671143
2.34102463722229
1.4577512741088867
1.9691176414489746
1.6252994537353516
0.8983906507492065
1.6177030801773071
1.3353283405303955
4.042597770690918
2.4350361824035645
1.5937879085540771
3.3517558574676514
2.503039836883545
3.8876798152923584
1.3644286394119263
2.110111951828003
3.840148448944092
2.2781412601470947
3.005906820297241
1.4582536220550537
2.492466449737549
1.6247185468673706
1.315795660018921
2.9109036922454834
1.537139654159546
1.7173683643341064
2.4924373626708984
3.1170237064361572
1.785467505455017
6.606817245483398
1.8959616422653198
5.27981424331665
1.3139878511428833
4.4482035636901855
1.6081328392028809
1.535194993019104
4.744983673095703
1.6325663328170776
3.8972280025482178
1.9253393411636353
4.245970726013184
1.7493674755096436
1.8000973463058472
1.747356653213501
1.4893568754196167
3.8334555625915527
2.1860768795013428
1.774219274520874
4.515251636505127
2.119403600692749
3.320502996444702
1.615422248840332
1.834843635559082
3.8529136180877686
1.287340760231018
1.6511774063110352
5.553975582122803
1.6831762790679932
1.6967277526855469
1.866607666015625
1.91326904296875
5.001039028167725
1.4653310775756836
4.811051368713379
1.8460921049118042
4.191561222076416
1.829516887664795
1.9319560527801514
5.942678928375244
2.00443172454834
5.099340438842773
2.487757444381714
1.720915675163269
6.281976699829102
2.0957956314086914
2.1511752605438232
4.1764984130859375
7.159283638000488
2.196742057800293
7.411565780639648
5.7769036293029785
3.762305498123169
1.59280264377594
3.2772154808044434
2.5382676124572754
3.23372745513916
2.5919244289398193
2.5012521743774414
5.029715538024902
3.3761088848114014
3.760505437850952
2.298448324203491
3.495170831680298
1.9680891036987305
1.5416594743728638
4.706549644470215
3.7114174365997314
3.0432980060577393
3.9931256771087646
3.2568564414978027
3.74829363822937
2.313734769821167
5.013324737548828
4.406121253967285
4.179337978363037
1.9810713529586792
1.7831741571426392
4.362419605255127
2.363100290298462
3.1686620712280273
1.476186990737915
1.1254550218582153
2.5095579624176025
1.950125813484192
3.022580862045288
1.5786831378936768
3.448824644088745
2.5984315872192383
1.51606285572052
3.596818685531616
1.2435060739517212
1.5559364557266235
4.206116676330566
1.6739736795425415
3.494194507598877
2.351583480834961
3.419058084487915
2.055328130722046
1.5028076171875
3.2559096813201904
2.966564893722534
3.9640815258026123
1.467369794845581
4.875666618347168
1.8473612070083618
5.0258331298828125
2.650341749191284
1.2693836688995361
1.9659417867660522
3.6919078826904297
6.6612138748168945
2.6242516040802
4.724773406982422
4.539029121398926
4.007678985595703
2.2918312549591064
1.9991977214813232
3.6973414421081543
3.7223823070526123
2.7023026943206787
3.5066723823547363
2.006530284881592
1.4027937650680542
3.3555285930633545
1.2462124824523926
2.889688491821289
1.5743381977081299
4.496800422668457
2.359025478363037
2.1573593616485596
4.642321586608887
1.4334362745285034
2.4037435054779053
2.7875030040740967
2.080955743789673
2.394942283630371
1.2176735401153564
2.419363260269165
2.2683463096618652
1.7944591045379639
3.070112705230713
2.1602540016174316
2.0648128986358643
1.8374452590942383
1.6137417554855347
2.2459399700164795
2.4618637561798096
3.132190704345703
1.1503432989120483
2.661081075668335
2.5479767322540283
2.7073233127593994
2.347357749938965
3.2551839351654053
2.440185546875
2.4822168350219727
1.71052086353302
2.0522265434265137
2.0987911224365234
2.78226375579834
2.7246506214141846
2.8995001316070557
1.6897581815719604
3.0530145168304443
2.8252453804016113
2.6514618396759033
2.072573661804199
2.3154985904693604
2.3589155673980713
1.5113656520843506
2.8286330699920654
1.9282293319702148
2.7408835887908936
2.175640821456909
2.8452908992767334
2.295330762863159
3.1424334049224854
1.9874409437179565
2.1725213527679443
1.5459433794021606
2.08132004737854
1.5364516973495483
1.6183332204818726
3.0005955696105957
1.5758062601089478
1.2201964855194092
1.9779456853866577
1.7017849683761597
1.701802134513855
1.8487138748168945
1.8310165405273438
2.2175283432006836
1.887987732887268
2.3146402835845947
1.3335003852844238
2.4092695713043213
1.7816718816757202
2.931668996810913
1.6894676685333252
5.169036865234375
4.120413780212402
9.936266899108887
1.7766386270523071
2.159959316253662
8.470179557800293
2.9659998416900635
5.993444442749023
2.6087701320648193
6.338830471038818
3.633582830429077
5.109045505523682
3.1710615158081055
4.773633003234863
1.968249797821045
1.4905571937561035
3.4149434566497803
2.388775110244751
4.860575199127197
3.722423791885376
4.336427211761475
1.4208029508590698
1.997813105583191
3.4014275074005127
3.197371244430542
2.8197689056396484
1.190639853477478
2.3623552322387695
1.56660795211792
2.89778733253479
1.5858817100524902
2.295365571975708
1.230743408203125
1.3319987058639526
1.8915537595748901
2.4730145931243896
1.7102974653244019
2.7059285640716553
1.5484395027160645
3.5372273921966553
2.0361993312835693
2.8075952529907227
1.5232065916061401
1.3608527183532715
2.8890578746795654
1.9855256080627441
2.639526605606079
3.9242522716522217
2.6219308376312256
3.9034645557403564
2.8245580196380615
2.3657939434051514
1.6239880323410034
3.062373638153076
2.9797143936157227
1.6243795156478882
1.4450665712356567
2.355377197265625
1.5379467010498047
1.5858433246612549
2.2987117767333984
1.3580694198608398
1.2568553686141968
3.0801877975463867
2.62603759765625
2.1329169273376465
4.354085445404053
2.0956451892852783
1.3493554592132568
3.0648536682128906
1.4122309684753418
4.191300868988037
1.3183735609054565
1.8793754577636719
4.371875286102295
2.318073272705078
1.8689024448394775
4.551820755004883
1.575457215309143
3.2596094608306885
2.097639799118042
5.005899429321289
2.2934439182281494
2.1148152351379395
2.06187105178833
4.6361308097839355
2.863229513168335
4.677195072174072
1.8303526639938354
3.096713066101074
1.2282906770706177
4.903922080993652
1.0544655323028564
1.8047757148742676
5.36461877822876
1.9527082443237305
5.555385589599609
2.2294559478759766
2.380105495452881
4.931014060974121
2.4920976161956787
2.635582685470581
5.348410606384277
2.429935932159424
2.692598342895508
4.645051002502441
2.144395351409912
2.968933343887329
1.6085788011550903
2.546213388442993
2.203335762023926
9.440155029296875
2.3954083919525146
6.837267875671387
1.8681682348251343
6.088008880615234
2.381544828414917
4.604083061218262
2.419147253036499
9.46597671508789
1.9624929428100586
2.6128830909729004
9.554723739624023
2.419147253036499
8.419047355651855
2.4041805267333984
8.688668251037598
2.5016939640045166
7.303943157196045
1.7224271297454834
9.215519905090332
1.8890559673309326
6.938458442687988
2.678840160369873
2.1343531608581543
5.5412702560424805
1.5907443761825562
1.439834713935852
2.52325439453125
1.0436553955078125
6.967021465301514
6.697055339813232
1.856121301651001
5.267348766326904
3.3438055515289307
2.71399188041687
0.8929492831230164
5.652287006378174
1.2030258178710938
2.145601272583008
4.8426513671875
1.172630786895752
4.91144323348999
1.253251552581787
3.58608341217041
3.105398178100586
2.1968746185302734
1.9868723154067993
3.0918025970458984
1.887466311454773
2.747600555419922
2.163752555847168
1.40665864944458
1.7764161825180054
4.846906661987305
1.9864588975906372
5.051029205322266
2.033625841140747
2.5863659381866455
3.3419384956359863
9.2653226852417
1.7359036207199097
1.4931640625
8.42570972442627
2.6540307998657227
8.877372741699219
2.2888433933258057
1.3988776206970215
1.43934965133667
8.299666404724121
1.3795232772827148
1.662156105041504
2.296189546585083
1.4766149520874023
1.3348228931427002
1.6054022312164307
3.134068012237549
7.239011287689209
3.088158369064331
2.0715205669403076
4.224506378173828
1.153628945350647
1.9487985372543335
3.3744571208953857
1.5330026149749756
2.6686558723449707
2.2574806213378906
1.7671022415161133
2.6698696613311768
3.0645837783813477
2.0482826232910156
1.6776821613311768
3.119436502456665
1.8644453287124634
1.741701364517212
3.8635575771331787
2.5814034938812256
3.365741014480591
1.9795969724655151
2.358872175216675
1.2799134254455566
2.360032081604004
1.127478837966919
1.8635740280151367
3.321838140487671
1.730475902557373
1.1326972246170044
2.1081464290618896
1.939212441444397
1.2475775480270386
1.7364052534103394
2.6737194061279297
1.4539108276367188
3.8059635162353516
3.0761096477508545
2.3987884521484375
2.91400408744812
2.7145073413848877
2.1492626667022705
1.979909062385559
2.2115728855133057
0.9397382140159607
3.1340184211730957
2.18247127532959
1.3391342163085938
1.5663011074066162
1.1215097904205322
1.4061325788497925
4.443943023681641
1.6925846338272095
4.11413049697876
2.055919647216797
3.8584697246551514
1.4569857120513916
1.302083969116211
2.9563682079315186
1.624626874923706
2.7489287853240967
1.3464151620864868
2.5095741748809814
2.4166512489318848
6.025367259979248
1.7482857704162598
1.6296156644821167
5.358518123626709
2.618635892868042
1.5846619606018066
1.7136174440383911
6.26639986038208
3.804553270339966
5.3644843101501465
1.6886069774627686
3.7092065811157227
1.9073823690414429
3.807497501373291
1.718960165977478
3.6565661430358887
2.503568410873413
3.8268401622772217
1.7718570232391357
4.401414394378662
1.829243540763855
1.6509981155395508
1.3091286420822144
1.0553897619247437
2.240427017211914
1.595296025276184
1.5408265590667725
1.6379886865615845
2.3611814975738525
1.5728623867034912
2.429335355758667
2.8683977127075195
1.3108874559402466
6.847696781158447
1.774153470993042
8.38517951965332
2.342510938644409
5.593845844268799
5.939892292022705
1.6829822063446045
5.302727222442627
2.342510938644409
5.936482906341553
1.614540696144104
5.237285137176514
1.3063572645187378
3.1887896060943604
1.8239914178848267
4.700685977935791
2.5223350524902344
2.419722557067871
3.1143593788146973
1.6625087261199951
1.6739203929901123
2.7919297218322754
1.6518104076385498
2.4426677227020264
1.6625208854675293
2.7782835960388184
1.6171075105667114
2.103166103363037
2.8926708698272705
2.0579910278320312
2.5430688858032227
1.5768524408340454
1.8296658992767334
2.031379461288452
1.881898283958435
2.0865230560302734
2.265854597091675
2.5016469955444336
1.6227800846099854
1.6827641725540161
1.5505378246307373
2.476924180984497
1.6559901237487793
1.4669189453125
1.4998245239257812
3.2200980186462402
1.4258085489273071
9.409533500671387
2.130422592163086
8.684076309204102
1.989295244216919
9.728780746459961
2.2056782245635986
8.726268768310547
3.0655555725097656
2.0391838550567627
2.12723445892334
8.112366676330566
2.2556095123291016
7.604954242706299
1.9576401710510254
2.5150809288024902
7.105823516845703
2.515073776245117
1.8900291919708252
6.791594505310059
2.917041540145874
5.746002197265625
2.024789571762085
1.9634045362472534
1.6575396060943604
4.236847877502441
2.3166284561157227
2.1778905391693115
5.922985553741455
2.6742992401123047
1.7380305528640747
5.846056938171387
2.5146267414093018
1.6452279090881348
5.243494987487793
2.124967575073242
2.348362684249878
5.474085330963135
1.171440601348877
2.298722267150879
1.2805938720703125
1.7502827644348145
4.9806060791015625
2.6167149543762207
5.6145124435424805
2.35018253326416
0.9619320034980774
3.8922247886657715
2.4873220920562744
4.657176494598389
3.825446605682373
1.2376397848129272
4.0583906173706055
1.3718364238739014
2.0837278366088867
4.201751232147217
2.4550576210021973
3.5562381744384766
4.376668930053711
1.6333258152008057
2.1772453784942627
2.4440083503723145
3.9918854236602783
1.2682901620864868
3.7809131145477295
2.854033946990967
2.740034818649292
3.847705364227295
1.7616204023361206
4.43675422668457
2.0000340938568115
2.471809148788452
3.9391238689422607
1.923844575881958
3.750652551651001
1.3232746124267578
2.003214120864868
2.7019073963165283
2.0867903232574463
4.7994704246521
1.920257568359375
1.5335098505020142
3.2602906227111816
1.6194355487823486
4.113007545471191
1.7484699487686157
3.566195487976074
1.7883620262145996
1.82171630859375
2.3184022903442383
1.0553433895111084
1.1146843433380127
2.6024281978607178
1.493194580078125
0.9062626361846924
1.1470868587493896
2.833159923553467
3.709130048751831
1.9123643636703491
1.9801629781723022
2.3408620357513428
3.4403514862060547
5.390891075134277
1.768768310546875
5.279786586761475
2.024122714996338
2.069653272628784
1.7072479724884033
4.041085720062256
1.212243676185608
2.4023780822753906
1.7303732633590698
2.18874454498291
4.299346446990967
0.78559410572052
2.308974504470825
3.5672292709350586
1.7215068340301514
2.3320200443267822
4.000707626342773
1.7785060405731201
1.4110013246536255
1.0911693572998047
3.7756831645965576
1.783682942390442
3.0447545051574707
2.6314752101898193
3.912933111190796
2.6284053325653076
3.789342164993286
2.95438814163208
1.774643898010254
1.857279896736145
1.0240598917007446
0.9864886403083801
2.1676430702209473
1.8044365644454956
2.4071311950683594
2.4784810543060303
2.3045756816864014
2.5579869747161865
1.9420061111450195
2.6321463584899902
2.2019686698913574
2.8988242149353027
1.5247802734375
1.8989956378936768
3.05377459526062
2.26444935798645
1.963197946548462
1.932011365890503
2.552251100540161
2.392002820968628
3.325087785720825
2.290511131286621
3.717545986175537
0.756404459476471
2.057690143585205
3.3051679134368896
2.1084060668945312
2.627033233642578
2.8083431720733643
1.822507619857788
1.7881863117218018
5.2074737548828125
2.9671857357025146
2.798593521118164
1.6824098825454712
4.208759307861328
2.8604931831359863
4.788888931274414
1.0463144779205322
4.221213340759277
1.1697998046875
3.025646686553955
2.2235183715820312
1.2389062643051147
1.3110357522964478
2.1381843090057373
1.35699462890625
2.901139259338379
1.7218296527862549
1.851117491722107
5.044947624206543
1.451315999031067
3.5574753284454346
1.7657486200332642
4.321696758270264
1.4929698705673218
1.6859259605407715
1.5281497240066528
4.125702857971191
1.327160358428955
1.1336402893066406
4.051790237426758
1.1472736597061157
1.8806511163711548
1.470936894416809
3.593083381652832
1.7968575954437256
3.803248167037964
2.7699878215789795
4.0797529220581055
2.346860647201538
3.526599407196045
4.044505596160889
1.2665539979934692
3.225177764892578
1.3812894821166992
3.2265615463256836
2.3347227573394775
3.5683610439300537
1.5343098640441895
3.111610174179077
1.3930325508117676
2.8808867931365967
2.4353086948394775
2.0325427055358887
1.3318138122558594
2.8660519123077393
1.5955255031585693
1.6069947481155396
5.27610969543457
2.8657314777374268
1.5224382877349854
3.027005672454834
4.954890251159668
1.5588093996047974
2.4535062313079834
1.9179747104644775
1.729024887084961
1.9509402513504028
3.1153564453125
1.9152377843856812
2.8690106868743896
2.003843069076538
2.788738489151001
2.121342897415161
1.3298121690750122
1.7194024324417114
1.9534316062927246
1.4644474983215332
3.0416247844696045
1.2190978527069092
0.8665128946304321
0.9508610963821411
3.727024793624878
1.673217535018921
3.0157604217529297
2.2133517265319824
3.577223062515259
1.6666266918182373
1.8241266012191772
2.086979866027832
3.0879275798797607
1.7339375019073486
4.330468654632568
3.467862367630005
4.596571922302246
2.9393584728240967
1.6251327991485596
1.8143837451934814
1.9631195068359375
2.1316936016082764
1.7501391172409058
1.4061214923858643
4.641566753387451
2.1968791484832764
2.639932870864868
6.565489292144775
1.889929175376892
3.4546914100646973
2.128401041030884
1.9637680053710938
2.0813801288604736
1.6055039167404175
1.6353808641433716
1.1637989282608032
2.460301399230957
2.0254154205322266
2.825927495956421
1.7423455715179443
2.561779260635376
2.2963812351226807
4.470820903778076
1.156341552734375
1.2928147315979004
5.108231067657471
2.1946094036102295
1.6846177577972412
5.404788017272949
1.9068574905395508
4.396205902099609
2.3273704051971436
6.613058090209961
4.647500514984131
4.135496139526367
1.3542152643203735
4.57890510559082
1.739526391029358
4.7220072746276855
1.6772207021713257
2.118621587753296
4.750647068023682
2.118619918823242
1.502288818359375
3.310832977294922
2.789679527282715
4.878997325897217
2.2869515419006348
1.3808165788650513
7.662126541137695
2.224034547805786
3.4532883167266846
4.855719566345215
3.676726818084717
3.8160183429718018
3.4479782581329346
2.089791774749756
1.754586100578308
1.112794280052185
1.2112878561019897
1.6989123821258545
4.041289806365967
1.369171142578125
2.5589935779571533
3.8312323093414307
1.431954026222229
2.8498637676239014
0.8797420859336853
4.502851963043213
2.83339262008667
4.571707248687744
3.09110951423645
2.50856351852417
2.5267832279205322
3.543503522872925
2.752652883529663
3.7487828731536865
1.1349058151245117
1.9936963319778442
0.9273266792297363
1.8113993406295776
2.7761597633361816
1.710191011428833
2.98351788520813
2.5994837284088135
2.6265335083007812
2.4043166637420654
2.6547555923461914
1.802411675453186
3.044386148452759
2.0056498050689697
1.2310199737548828
2.589160203933716
2.3135862350463867
2.7526485919952393
4.410874366760254
1.5670443773269653
4.879253387451172
5.47292423248291
6.479377746582031
2.0647435188293457
4.992963790893555
5.628128528594971
1.5017924308776855
4.525393962860107
2.9015908241271973
2.2254185676574707
1.5024161338806152
1.733839511871338
4.252216815948486
1.4135866165161133
7.569906711578369
2.3507652282714844
6.409943580627441
1.9317576885223389
2.518324375152588
1.442389965057373
8.900347709655762
1.86659836769104
9.812904357910156
4.426103591918945
2.7990381717681885
2.537440061569214
8.53234577178955
2.2429943084716797
2.229156494140625
6.536875247955322
2.501368999481201
3.1049211025238037
2.32842755317688
6.017555236816406
2.7537684440612793
1.719968557357788
3.4309628009796143
5.882706642150879
2.1170406341552734
2.254934072494507
1.7131876945495605
3.1870908737182617
1.115972876548767
2.048485040664673
3.0255722999572754
2.520698308944702
1.8289400339126587
2.0031533241271973
1.8769742250442505
1.239713430404663
2.5657238960266113
2.1890666484832764
4.3652424812316895
2.992093563079834
1.9579620361328125
3.483140468597412
1.4903844594955444
4.815084457397461
1.9737900495529175
5.336270332336426
2.9392640590667725
3.7687768936157227
2.0678319931030273
3.601696491241455
2.244123935699463
1.5993613004684448
4.137960433959961
1.669133186340332
1.887160062789917
2.947014093399048
2.5819857120513916
2.3597052097320557
2.144529342651367
4.135664463043213
1.850556492805481
1.7878742218017578
3.143587112426758
2.097036838531494
1.6392079591751099
1.5800628662109375
0.8853759765625
2.0290751457214355
2.3441853523254395
1.978001356124878
2.727226495742798
1.6450453996658325
1.1974115371704102
3.689621686935425
1.3194531202316284
1.4153878688812256
4.310998916625977
1.5899930000305176
1.3194549083709717
1.7866687774658203
3.4823105335235596
1.3111402988433838
2.152967929840088
2.09244966506958
1.7401739358901978
1.4860259294509888
1.029767394065857
2.248586654663086
2.3848540782928467
1.569222331047058
1.2568632364273071
1.294177770614624
2.250701665878296
2.427154302597046
3.9407052993774414
1.6812560558319092
2.2844882011413574
4.79716682434082
1.4103106260299683
5.231633186340332
1.3955814838409424
5.544174671173096
1.8906701803207397
5.753776550292969
1.8797043561935425
1.5003139972686768
5.688102722167969
2.1274569034576416
1.7026509046554565
5.789910316467285
1.4818271398544312
2.1540138721466064
4.841516017913818
2.1079201698303223
4.6308183670043945
2.0099735260009766
2.2069814205169678
6.961034297943115
2.3514139652252197
6.187926769256592
1.9052097797393799
2.0355281829833984
1.8723640441894531
4.52070951461792
1.9033414125442505
4.079915523529053
1.9121451377868652
2.1353397369384766
3.626006603240967
1.8382327556610107
3.9373385906219482
2.3082187175750732
2.6882436275482178
1.7671968936920166
2.8374547958374023
1.18548583984375
2.752537965774536
1.359712839126587
2.8724491596221924
3.8918616771698
1.2063639163970947
2.6092474460601807
4.524185657501221
2.157140016555786
4.1937360763549805
1.8304002285003662
3.6240015029907227
2.835106134414673
1.3244776725769043
3.9200057983398438
1.2899208068847656
0.8925018310546875
1.8386074304580688
1.9108829498291016
3.1928212642669678
1.59097421169281
2.74442982673645
1.4103645086288452
1.668586254119873
1.4066144227981567
2.2775869369506836
1.3015419244766235
1.7697508335113525
0.8676899671554565
1.4247117042541504
2.1761560440063477
1.7047441005706787
1.9702472686767578
2.2626566886901855
1.086517333984375
2.7823009490966797
1.9104536771774292
2.998056173324585
1.6143341064453125
1.9269169569015503
1.059970498085022
1.9737855195999146
1.9380943775177002
0.8913841247558594
1.2124220132827759
1.9855549335479736
2.014860153198242
1.5903708934783936
2.4836363792419434
1.0256948471069336
0.9724947810173035
2.215864658355713
1.4239041805267334
2.124751567840576
1.9389539957046509
1.9292484521865845
1.7879536151885986
1.8191553354263306
2.0174758434295654
6.100883960723877
1.0129001140594482
1.726619839668274
2.565255641937256
6.3775410652160645
1.0395351648330688
2.343388319015503
1.6224052906036377
4.1727800369262695
2.1002039909362793
2.5953965187072754
6.558267593383789
1.6262885332107544
3.4538369178771973
6.030881881713867
1.8568615913391113
2.337995767593384
3.74304461479187
1.4961689710617065
2.2123379707336426
5.718822956085205
1.6801446676254272
2.274096727371216
4.64935827255249
2.0931169986724854
4.421308517456055
2.6287598609924316
1.6365717649459839
4.156449794769287
1.7525148391723633
4.448292255401611
1.6351873874664307
2.125234365463257
3.440650701522827
4.006502151489258
2.189088821411133
1.5515638589859009
3.5922064781188965
0.955170750617981
4.752168655395508
0.9785310626029968
1.010324478149414
3.4003725051879883
1.4800606966018677
1.5496342182159424
1.5401111841201782
1.566179871559143
3.088655471801758
0.8672202825546265
2.200775623321533
3.896026849746704
2.680067539215088
3.4758453369140625
1.8117730617523193
4.288963317871094
1.5923261642456055
4.441174030303955
2.014528274536133
2.3379716873168945
3.568153142929077
1.2642104625701904
1.7635663747787476
3.888423204421997
2.111126661300659
1.3900322914123535
3.660047769546509
1.2698404788970947
1.2641843557357788
2.9266903400421143
1.181960940361023
2.210049629211426
2.0145134925842285
0.9681681394577026
0.958892822265625
3.7060298919677734
5.381579399108887
0.9465181231498718
1.2101430892944336
1.5968278646469116
3.831742525100708
0.9169291257858276
1.2682541608810425
1.596824288368225
3.9972283840179443
1.3552064895629883
4.813785076141357
1.5497491359710693
1.751191258430481
4.268616676330566
2.1599740982055664
4.342645168304443
2.4584107398986816
1.6540504693984985
3.853541851043701
1.5340369939804077
3.6404900550842285
1.9828399419784546
1.5878102779388428
2.3031857013702393
2.989423990249634
1.1872066259384155
3.349569320678711
2.07808518409729
2.5373897552490234
2.083280324935913
1.382623314857483
2.5206985473632812
2.307429552078247
2.6987297534942627
1.5011553764343262
5.108782768249512
2.1182308197021484
5.028935432434082
1.1385114192962646
1.9321177005767822
4.893877983093262
1.4401016235351562
4.778423309326172
2.41803240776062
2.65240478515625
4.451748371124268
0.9473037719726562
2.211290121078491
3.682439088821411
1.3019477128982544
1.7360185384750366
2.430840253829956
1.838796854019165
1.7803162336349487
1.6749787330627441
1.892791748046875
1.670911431312561
1.2453601360321045
2.374225378036499
1.540503978729248
0.9073915481567383
2.001375675201416
1.044219970703125
2.2678089141845703
2.0146026611328125
5.308847904205322
4.947436809539795
4.471219539642334
1.6567316055297852
1.2708587646484375
1.043013334274292
5.409606456756592
1.7260079383850098
2.106023073196411
4.338230609893799
1.921051025390625
2.914811611175537
1.2185370922088623
2.638960123062134
1.6635080575942993
1.2388604879379272
2.081696033477783
2.276456356048584
1.1565675735473633
2.0019023418426514
1.7854082584381104
4.2828874588012695
2.8748621940612793
2.1024324893951416
1.8821417093276978
1.8483351469039917
2.843629837036133
4.152660846710205
2.1469626426696777
2.9148099422454834
1.5827887058258057
2.2290704250335693
2.396681785583496
1.661936640739441
4.043200969696045
2.1053779125213623
5.475774765014648
1.5528408288955688
1.136820673942566
1.7676321268081665
3.452362060546875
1.1355470418930054
2.1511294841766357
1.0340375900268555
1.1572617292404175
2.6408047676086426
1.841272234916687
1.2363941669464111
1.5332802534103394
1.2742878198623657
1.4794838428497314
3.1605544090270996
1.5150384902954102
1.334604263305664
1.7668246030807495
2.382807970046997
1.1641207933425903
1.7474730014801025
2.8594019412994385
2.296530246734619
1.0983669757843018
1.783774495124817
1.996311902999878
2.0750746726989746
1.6560884714126587
2.44519305229187
1.8848762512207031
1.4503138065338135
1.3706510066986084
1.7632871866226196
2.2815380096435547
1.5305278301239014
1.5465116500854492
1.2961992025375366
2.189443349838257
1.6405029296875
1.5139079093933105
1.403088092803955
1.5105133056640625
4.939638614654541
1.8214497566223145
1.1991066932678223
4.118292331695557
1.9692796468734741
1.7235745191574097
3.362105369567871
1.3425012826919556
3.2231874465942383
1.760486125946045
3.1492300033569336
2.070150136947632
1.5859700441360474
3.338252305984497
1.4714686870574951
1.9270832538604736
1.3116588592529297
3.4996297359466553
0.9863482117652893
3.6331093311309814
1.17567777633667
2.7133140563964844
1.2853580713272095
1.773991346359253
1.044213891029358
3.2888095378875732
1.569517970085144
2.305283546447754
2.2821292877197266
0.781159520149231
1.3045597076416016
1.5044234991073608
1.5271185636520386
3.2472915649414062
0.9709928631782532
2.3230855464935303
1.5646440982818604
2.145343542098999
1.79399836063385
2.0051393508911133
1.7058097124099731
0.6591805219650269
1.2061913013458252
1.6066808700561523
2.4063260555267334
2.320929527282715
1.658860683441162
1.582764983177185
1.8511383533477783
1.5491819381713867
2.214751720428467
1.4682244062423706
1.7833627462387085
1.5812950134277344
1.135528564453125
1.1969698667526245
1.707352638244629
1.1423251628875732
0.9319115281105042
1.9428668022155762
2.5171008110046387
1.2422922849655151
1.2716947793960571
1.4928374290466309
1.5841938257217407
2.0794477462768555
5.062036037445068
1.0741215944290161
1.7610563039779663
4.336454391479492
2.7540283203125
1.8243491649627686
1.0087890625
1.7151206731796265
1.2491141557693481
3.5005080699920654
1.4532148838043213
3.4211080074310303
2.5582275390625
2.8116002082824707
1.4000244140625
3.661874771118164
1.366882562637329
1.916034460067749
1.1330156326293945
1.7369728088378906
1.175514578819275
1.6734578609466553
2.401890516281128
2.689737558364868
2.0931689739227295
2.184293746948242
4.0768938064575195
1.786773443222046
2.043818235397339
2.192056655883789
2.3876285552978516
1.520766019821167
1.6379152536392212
1.9130138158798218
1.4584088325500488
3.968566656112671
2.1096527576446533
1.472320556640625
4.165159225463867
1.3044720888137817
3.0541701316833496
4.033785343170166
1.5568604469299316